…
```
## The following objects are masked from 'package:base':
## 
##     intersect, setdiff, setequal, union
```

```r
z<-stepsdata %>%
group_by(interval) %>%
summarize(mean_steps= mean(steps))
z
```

```
## # A tibble: 288 x 2
##    interval mean_steps
##       <int>      <dbl>
##  1        0     1.72  
##  2        5     0.340 
##  3       10     0.132 
##  4       15     0.151 
##  5       20     0.0755
##  6       25     2.09  
##  7       30     0.528 
##  8       35     0.868 
##  9       40     0     
## 10       45     1.47  
## # ... with 278 more rows
```
…
